%YAML 1.1
%TAG !u! tag:unity3d.com,2011:
--- !u!1 &735144568433366347
GameObject:
  m_ObjectHideFlags: 0
  m_CorrespondingSourceObject: {fileID: 0}
  m_PrefabInstance: {fileID: 0}
  m_PrefabAsset: {fileID: 0}
  serializedVersion: 6
  m_Component:
  - component: {fileID: 3786654105301835552}
  - component: {fileID: 3854257145589970077}
  - component: {fileID: 5771137645599479137}
  - component: {fileID: 9143465979711327424}
  - component: {fileID: 2447241431708036127}
  - component: {fileID: 7406033407470821937}
  m_Layer: 0
  m_Name: Plate
  m_TagString: Untagged
  m_Icon: {fileID: 0}
  m_NavMeshLayer: 0
  m_StaticEditorFlags: 0
  m_IsActive: 1
--- !u!4 &3786654105301835552
Transform:
  m_ObjectHideFlags: 0
  m_CorrespondingSourceObject: {fileID: 0}
  m_PrefabInstance: {fileID: 0}
  m_PrefabAsset: {fileID: 0}
  m_GameObject: {fileID: 735144568433366347}
  m_LocalRotation: {x: -0, y: 0.7071068, z: -0, w: 0.7071068}
  m_LocalPosition: {x: 0, y: 0, z: 0}
  m_LocalScale: {x: 2.1249766, y: 0.45516, z: 1.2406}
  m_ConstrainProportionsScale: 0
  m_Children: []
  m_Father: {fileID: 2658120014173527814}
  m_RootOrder: 0
  m_LocalEulerAnglesHint: {x: 0, y: 90, z: 0}
--- !u!114 &3854257145589970077
MonoBehaviour:
  m_ObjectHideFlags: 0
  m_CorrespondingSourceObject: {fileID: 0}
  m_PrefabInstance: {fileID: 0}
  m_PrefabAsset: {fileID: 0}
  m_GameObject: {fileID: 735144568433366347}
  m_Enabled: 1
  m_EditorHideFlags: 0
  m_Script: {fileID: 11500000, guid: 8233d90336aea43098adf6dbabd606a2, type: 3}
  m_Name: 
  m_EditorClassIdentifier: 
  m_MeshFormatVersion: 2
  m_Faces:
  - m_Indexes: 000000000100000002000000010000000300000002000000
    m_SmoothingGroup: 1
    m_Uv:
      m_UseWorldSpace: 0
      m_FlipU: 0
      m_FlipV: 0
      m_SwapUV: 0
      m_Fill: 1
      m_Scale: {x: 1, y: 1}
      m_Offset: {x: 0, y: 0}
      m_Rotation: 0
      m_Anchor: 9
    m_Material: {fileID: 0}
    m_SubmeshIndex: 0
    m_ManualUV: 0
    elementGroup: -1
    m_TextureGroup: -1
  - m_Indexes: 040000000500000006000000050000000700000006000000
    m_SmoothingGroup: 1
    m_Uv:
      m_UseWorldSpace: 0
      m_FlipU: 0
      m_FlipV: 0
      m_SwapUV: 0
      m_Fill: 1
      m_Scale: {x: 1, y: 1}
      m_Offset: {x: 0, y: 0}
      m_Rotation: 0
      m_Anchor: 9
    m_Material: {fileID: 0}
    m_SubmeshIndex: 0
    m_ManualUV: 0
    elementGroup: -1
    m_TextureGroup: -1
  - m_Indexes: 08000000090000000a000000090000000b0000000a000000
    m_SmoothingGroup: 1
    m_Uv:
      m_UseWorldSpace: 0
      m_FlipU: 0
      m_FlipV: 0
      m_SwapUV: 0
      m_Fill: 1
      m_Scale: {x: 1, y: 1}
      m_Offset: {x: 0, y: 0}
      m_Rotation: 0
      m_Anchor: 9
    m_Material: {fileID: 0}
    m_SubmeshIndex: 0
    m_ManualUV: 0
    elementGroup: -1
    m_TextureGroup: -1
  - m_Indexes: 0c0000000d0000000e0000000d0000000f0000000e000000
    m_SmoothingGroup: 1
    m_Uv:
      m_UseWorldSpace: 0
      m_FlipU: 0
      m_FlipV: 0
      m_SwapUV: 0
      m_Fill: 1
      m_Scale: {x: 1, y: 1}
      m_Offset: {x: 0, y: 0}
      m_Rotation: 0
      m_Anchor: 9
    m_Material: {fileID: 0}
    m_SubmeshIndex: 0
    m_ManualUV: 0
    elementGroup: -1
    m_TextureGroup: -1
  - m_Indexes: 100000001100000012000000110000001300000012000000
    m_SmoothingGroup: 1
    m_Uv:
      m_UseWorldSpace: 0
      m_FlipU: 0
      m_FlipV: 0
      m_SwapUV: 0
      m_Fill: 1
      m_Scale: {x: 1, y: 1}
      m_Offset: {x: 0, y: 0}
      m_Rotation: 0
      m_Anchor: 9
    m_Material: {fileID: 0}
    m_SubmeshIndex: 0
    m_ManualUV: 0
    elementGroup: -1
    m_TextureGroup: -1
  - m_Indexes: 140000001500000016000000150000001700000016000000
    m_SmoothingGroup: 1
    m_Uv:
      m_UseWorldSpace: 0
      m_FlipU: 0
      m_FlipV: 0
      m_SwapUV: 0
      m_Fill: 1
      m_Scale: {x: 1, y: 1}
      m_Offset: {x: 0, y: 0}
      m_Rotation: 0
      m_Anchor: 9
    m_Material: {fileID: 0}
    m_SubmeshIndex: 0
    m_ManualUV: 0
    elementGroup: -1
    m_TextureGroup: -1
  - m_Indexes: 1a0000001900000018000000
    m_SmoothingGroup: 0
    m_Uv:
      m_UseWorldSpace: 0
      m_FlipU: 0
      m_FlipV: 0
      m_SwapUV: 0
      m_Fill: 1
      m_Scale: {x: 1, y: 1}
      m_Offset: {x: 0, y: 0}
      m_Rotation: 0
      m_Anchor: 9
    m_Material: {fileID: 2100000, guid: 31321ba15b8f8eb4c954353edc038b1d, type: 2}
    m_SubmeshIndex: 0
    m_ManualUV: 0
    elementGroup: 0
    m_TextureGroup: -1
  - m_Indexes: 200000001f0000001e000000
    m_SmoothingGroup: 0
    m_Uv:
      m_UseWorldSpace: 0
      m_FlipU: 0
      m_FlipV: 0
      m_SwapUV: 0
      m_Fill: 1
      m_Scale: {x: 1, y: 1}
      m_Offset: {x: 0, y: 0}
      m_Rotation: 0
      m_Anchor: 9
    m_Material: {fileID: 2100000, guid: 31321ba15b8f8eb4c954353edc038b1d, type: 2}
    m_SubmeshIndex: 0
    m_ManualUV: 0
    elementGroup: 0
    m_TextureGroup: -1
  - m_Indexes: 260000002500000024000000
    m_SmoothingGroup: 0
    m_Uv:
      m_UseWorldSpace: 0
      m_FlipU: 0
      m_FlipV: 0
      m_SwapUV: 0
      m_Fill: 1
      m_Scale: {x: 1, y: 1}
      m_Offset: {x: 0, y: 0}
      m_Rotation: 0
      m_Anchor: 9
    m_Material: {fileID: 2100000, guid: 31321ba15b8f8eb4c954353edc038b1d, type: 2}
    m_SubmeshIndex: 0
    m_ManualUV: 0
    elementGroup: 0
    m_TextureGroup: -1
  - m_Indexes: 2c0000002b0000002a000000
    m_SmoothingGroup: 0
    m_Uv:
      m_UseWorldSpace: 0
      m_FlipU: 0
      m_FlipV: 0
      m_SwapUV: 0
      m_Fill: 1
      m_Scale: {x: 1, y: 1}
      m_Offset: {x: 0, y: 0}
      m_Rotation: 0
      m_Anchor: 9
    m_Material: {fileID: 2100000, guid: 31321ba15b8f8eb4c954353edc038b1d, type: 2}
    m_SubmeshIndex: 0
    m_ManualUV: 0
    elementGroup: 0
    m_TextureGroup: -1
  - m_Indexes: 320000003100000030000000
    m_SmoothingGroup: 0
    m_Uv:
      m_UseWorldSpace: 0
      m_FlipU: 0
      m_FlipV: 0
      m_SwapUV: 0
      m_Fill: 1
      m_Scale: {x: 1, y: 1}
      m_Offset: {x: 0, y: 0}
      m_Rotation: 0
      m_Anchor: 9
    m_Material: {fileID: 2100000, guid: 31321ba15b8f8eb4c954353edc038b1d, type: 2}
    m_SubmeshIndex: 0
    m_ManualUV: 0
    elementGroup: 0
    m_TextureGroup: -1
  - m_Indexes: 380000003700000036000000
    m_SmoothingGroup: 0
    m_Uv:
      m_UseWorldSpace: 0
      m_FlipU: 0
      m_FlipV: 0
      m_SwapUV: 0
      m_Fill: 1
      m_Scale: {x: 1, y: 1}
      m_Offset: {x: 0, y: 0}
      m_Rotation: 0
      m_Anchor: 9
    m_Material: {fileID: 2100000, guid: 31321ba15b8f8eb4c954353edc038b1d, type: 2}
    m_SubmeshIndex: 0
    m_ManualUV: 0
    elementGroup: 0
    m_TextureGroup: -1
  - m_Indexes: 1b0000001c0000001d000000
    m_SmoothingGroup: 0
    m_Uv:
      m_UseWorldSpace: 0
      m_FlipU: 0
      m_FlipV: 0
      m_SwapUV: 0
      m_Fill: 1
      m_Scale: {x: 1, y: 1}
      m_Offset: {x: 0, y: 0}
      m_Rotation: 0
      m_Anchor: 9
    m_Material: {fileID: 2100000, guid: 31321ba15b8f8eb4c954353edc038b1d, type: 2}
    m_SubmeshIndex: 0
    m_ManualUV: 0
    elementGroup: 0
    m_TextureGroup: -1
  - m_Indexes: 210000002200000023000000
    m_SmoothingGroup: 0
    m_Uv:
      m_UseWorldSpace: 0
      m_FlipU: 0
      m_FlipV: 0
      m_SwapUV: 0
      m_Fill: 1
      m_Scale: {x: 1, y: 1}
      m_Offset: {x: 0, y: 0}
      m_Rotation: 0
      m_Anchor: 9
    m_Material: {fileID: 2100000, guid: 31321ba15b8f8eb4c954353edc038b1d, type: 2}
    m_SubmeshIndex: 0
    m_ManualUV: 0
    elementGroup: 0
    m_TextureGroup: -1
  - m_Indexes: 270000002800000029000000
    m_SmoothingGroup: 0
    m_Uv:
      m_UseWorldSpace: 0
      m_FlipU: 0
      m_FlipV: 0
      m_SwapUV: 0
      m_Fill: 1
      m_Scale: {x: 1, y: 1}
      m_Offset: {x: 0, y: 0}
      m_Rotation: 0
      m_Anchor: 9
    m_Material: {fileID: 2100000, guid: 31321ba15b8f8eb4c954353edc038b1d, type: 2}
    m_SubmeshIndex: 0
    m_ManualUV: 0
    elementGroup: 0
    m_TextureGroup: -1
  - m_Indexes: 2d0000002e0000002f000000
    m_SmoothingGroup: 0
    m_Uv:
      m_UseWorldSpace: 0
      m_FlipU: 0
      m_FlipV: 0
      m_SwapUV: 0
      m_Fill: 1
      m_Scale: {x: 1, y: 1}
      m_Offset: {x: 0, y: 0}
      m_Rotation: 0
      m_Anchor: 9
    m_Material: {fileID: 2100000, guid: 31321ba15b8f8eb4c954353edc038b1d, type: 2}
    m_SubmeshIndex: 0
    m_ManualUV: 0
    elementGroup: 0
    m_TextureGroup: -1
  - m_Indexes: 330000003400000035000000
    m_SmoothingGroup: 0
    m_Uv:
      m_UseWorldSpace: 0
      m_FlipU: 0
      m_FlipV: 0
      m_SwapUV: 0
      m_Fill: 1
      m_Scale: {x: 1, y: 1}
      m_Offset: {x: 0, y: 0}
      m_Rotation: 0
      m_Anchor: 9
    m_Material: {fileID: 2100000, guid: 31321ba15b8f8eb4c954353edc038b1d, type: 2}
    m_SubmeshIndex: 0
    m_ManualUV: 0
    elementGroup: 0
    m_TextureGroup: -1
  - m_Indexes: 390000003a0000003b000000
    m_SmoothingGroup: 0
    m_Uv:
      m_UseWorldSpace: 0
      m_FlipU: 0
      m_FlipV: 0
      m_SwapUV: 0
      m_Fill: 1
      m_Scale: {x: 1, y: 1}
      m_Offset: {x: 0, y: 0}
      m_Rotation: 0
      m_Anchor: 9
    m_Material: {fileID: 2100000, guid: 31321ba15b8f8eb4c954353edc038b1d, type: 2}
    m_SubmeshIndex: 0
    m_ManualUV: 0
    elementGroup: 0
    m_TextureGroup: -1
  m_SharedVertices:
  - m_Vertices: 00000000160000001800000038000000
  - m_Vertices: 01000000170000001b0000003b000000
  - m_Vertices: 02000000040000001a0000001e000000
  - m_Vertices: 03000000050000001d00000021000000
  - m_Vertices: 06000000080000002000000024000000
  - m_Vertices: 07000000090000002300000027000000
  - m_Vertices: 0a0000000c000000260000002a000000
  - m_Vertices: 0b0000000d000000290000002d000000
  - m_Vertices: 0e000000100000002c00000030000000
  - m_Vertices: 0f000000110000002f00000033000000
  - m_Vertices: 12000000140000003200000036000000
  - m_Vertices: 13000000150000003500000039000000
  - m_Vertices: 190000001f000000250000002b0000003100000037000000
  - m_Vertices: 1c00000022000000280000002e000000340000003a000000
  m_SharedTextures: []
  m_Positions:
  - {x: 0.8121841, y: 0, z: 0.65991783}
  - {x: 0.8121841, y: 0.2210964, z: 0.65991783}
  - {x: 0.609138, y: 0, z: 1.2314234}
  - {x: 0.609138, y: 0.2210964, z: 1.2314234}
  - {x: 0.609138, y: 0, z: 1.2314234}
  - {x: 0.609138, y: 0.2210964, z: 1.2314234}
  - {x: 0.20304596, y: 0, z: 1.2314234}
  - {x: 0.20304596, y: 0.2210964, z: 1.2314234}
  - {x: 0.20304596, y: 0, z: 1.2314234}
  - {x: 0.20304596, y: 0.2210964, z: 1.2314234}
  - {x: -0.000000029802322, y: 0, z: 0.6599178}
  - {x: -0.000000029802322, y: 0.2210964, z: 0.6599178}
  - {x: -0.000000029802322, y: 0, z: 0.6599178}
  - {x: -0.000000029802322, y: 0.2210964, z: 0.6599178}
  - {x: 0.20304602, y: 0, z: 0.088412285}
  - {x: 0.20304602, y: 0.2210964, z: 0.088412285}
  - {x: 0.20304602, y: 0, z: 0.088412285}
  - {x: 0.20304602, y: 0.2210964, z: 0.088412285}
  - {x: 0.609138, y: 0, z: 0.088412285}
  - {x: 0.609138, y: 0.2210964, z: 0.088412285}
  - {x: 0.609138, y: 0, z: 0.088412285}
  - {x: 0.609138, y: 0.2210964, z: 0.088412285}
  - {x: 0.8121841, y: 0, z: 0.65991783}
  - {x: 0.8121841, y: 0.2210964, z: 0.65991783}
  - {x: 0.8121841, y: 0, z: 0.65991783}
  - {x: 0.40609202, y: 0, z: 0.65991783}
  - {x: 0.609138, y: 0, z: 1.2314234}
  - {x: 0.8121841, y: 0.2210964, z: 0.65991783}
  - {x: 0.40609202, y: 0.2210964, z: 0.65991783}
  - {x: 0.609138, y: 0.2210964, z: 1.2314234}
  - {x: 0.609138, y: 0, z: 1.2314234}
  - {x: 0.40609202, y: 0, z: 0.65991783}
  - {x: 0.20304596, y: 0, z: 1.2314234}
  - {x: 0.609138, y: 0.2210964, z: 1.2314234}
  - {x: 0.40609202, y: 0.2210964, z: 0.65991783}
  - {x: 0.20304596, y: 0.2210964, z: 1.2314234}
  - {x: 0.20304596, y: 0, z: 1.2314234}
  - {x: 0.40609202, y: 0, z: 0.65991783}
  - {x: -0.000000029802322, y: 0, z: 0.6599178}
  - {x: 0.20304596, y: 0.2210964, z: 1.2314234}
  - {x: 0.40609202, y: 0.2210964, z: 0.65991783}
  - {x: -0.000000029802322, y: 0.2210964, z: 0.6599178}
  - {x: -0.000000029802322, y: 0, z: 0.6599178}
  - {x: 0.40609202, y: 0, z: 0.65991783}
  - {x: 0.20304602, y: 0, z: 0.088412285}
  - {x: -0.000000029802322, y: 0.2210964, z: 0.6599178}
  - {x: 0.40609202, y: 0.2210964, z: 0.65991783}
  - {x: 0.20304602, y: 0.2210964, z: 0.088412285}
  - {x: 0.20304602, y: 0, z: 0.088412285}
  - {x: 0.40609202, y: 0, z: 0.65991783}
  - {x: 0.609138, y: 0, z: 0.088412285}
  - {x: 0.20304602, y: 0.2210964, z: 0.088412285}
  - {x: 0.40609202, y: 0.2210964, z: 0.65991783}
  - {x: 0.609138, y: 0.2210964, z: 0.088412285}
  - {x: 0.609138, y: 0, z: 0.088412285}
  - {x: 0.40609202, y: 0, z: 0.65991783}
  - {x: 0.8121841, y: 0, z: 0.65991783}
  - {x: 0.609138, y: 0.2210964, z: 0.088412285}
  - {x: 0.40609202, y: 0.2210964, z: 0.65991783}
  - {x: 0.8121841, y: 0.2210964, z: 0.65991783}
  m_Textures0:
  - {x: 0.34993362, y: 0}
  - {x: 0.34993362, y: 0.2210964}
  - {x: 0.95643693, y: 0}
  - {x: 0.95643693, y: 0.2210964}
  - {x: -0.609138, y: 0}
  - {x: -0.609138, y: 0.2210964}
  - {x: -0.20304596, y: 0}
  - {x: -0.20304596, y: 0.2210964}
  - {x: -1.2283411, y: 0}
  - {x: -1.2283411, y: 0.2210964}
  - {x: -0.6218378, y: 0}
  - {x: -0.6218378, y: 0.2210964}
  - {x: -0.62183774, y: 0}
  - {x: -0.62183774, y: 0.2210964}
  - {x: -0.015334484, y: 0}
  - {x: -0.015334484, y: 0.2210964}
  - {x: 0.20304602, y: 0}
  - {x: 0.20304602, y: 0.2210964}
  - {x: 0.609138, y: 0}
  - {x: 0.609138, y: 0.2210964}
  - {x: 0.28723863, y: 0}
  - {x: 0.28723863, y: 0.2210964}
  - {x: 0.89374197, y: 0}
  - {x: 0.89374197, y: 0.2210964}
  - {x: -0.8121841, y: 0.65991783}
  - {x: -0.40609202, y: 0.65991783}
  - {x: -0.609138, y: 1.2314234}
  - {x: 0.8121841, y: 0.65991783}
  - {x: 0.40609202, y: 0.65991783}
  - {x: 0.609138, y: 1.2314234}
  - {x: -0.609138, y: 1.2314234}
  - {x: -0.40609202, y: 0.65991783}
  - {x: -0.20304596, y: 1.2314234}
  - {x: 0.609138, y: 1.2314234}
  - {x: 0.40609202, y: 0.65991783}
  - {x: 0.20304596, y: 1.2314234}
  - {x: -0.20304596, y: 1.2314234}
  - {x: -0.40609202, y: 0.65991783}
  - {x: 0.000000029802322, y: 0.6599178}
  - {x: 0.20304596, y: 1.2314234}
  - {x: 0.40609202, y: 0.65991783}
  - {x: -0.000000029802322, y: 0.6599178}
  - {x: 0.000000029802322, y: 0.6599178}
  - {x: -0.40609202, y: 0.65991783}
  - {x: -0.20304602, y: 0.088412285}
  - {x: -0.000000029802322, y: 0.6599178}
  - {x: 0.40609202, y: 0.65991783}
  - {x: 0.20304602, y: 0.088412285}
  - {x: -0.20304602, y: 0.088412285}
  - {x: -0.40609202, y: 0.65991783}
  - {x: -0.609138, y: 0.088412285}
  - {x: 0.20304602, y: 0.088412285}
  - {x: 0.40609202, y: 0.65991783}
  - {x: 0.609138, y: 0.088412285}
  - {x: -0.609138, y: 0.088412285}
  - {x: -0.40609202, y: 0.65991783}
  - {x: -0.8121841, y: 0.65991783}
  - {x: 0.609138, y: 0.088412285}
  - {x: 0.40609202, y: 0.65991783}
  - {x: 0.8121841, y: 0.65991783}
  m_Textures2: []
  m_Textures3: []
  m_Tangents:
  - {x: 0, y: 0, z: 1, w: -1}
  - {x: 0, y: 0, z: 1, w: -1}
  - {x: -0.8169399, y: 0, z: 0.576723, w: -1}
  - {x: -0.8169399, y: 0, z: 0.576723, w: -1}
  - {x: -0.81693983, y: 0, z: 0.57672286, w: -1}
  - {x: -0.81693983, y: 0, z: 0.57672286, w: -1}
  - {x: -0.8169398, y: 0, z: -0.57672304, w: -1}
  - {x: -0.8169398, y: 0, z: -0.57672304, w: -1}
  - {x: -0.8169398, y: 0, z: -0.5767229, w: -1}
  - {x: -0.8169398, y: 0, z: -0.5767229, w: -1}
  - {x: 0.00000006325471, y: 0, z: -1, w: -1}
  - {x: 0.00000006325471, y: 0, z: -1, w: -1}
  - {x: 0.0000000632547, y: 0, z: -1, w: -1}
  - {x: 0.0000000632547, y: 0, z: -1, w: -1}
  - {x: 0.8169398, y: 0, z: -0.576723, w: -1}
  - {x: 0.8169398, y: 0, z: -0.576723, w: -1}
  - {x: 0.81693983, y: 0, z: -0.57672286, w: -1}
  - {x: 0.81693983, y: 0, z: -0.57672286, w: -1}
  - {x: 0.81693983, y: 0, z: 0.57672286, w: -1}
  - {x: 0.81693983, y: 0, z: 0.57672286, w: -1}
  - {x: 0.81693983, y: 0, z: 0.576723, w: -1}
  - {x: 0.81693983, y: 0, z: 0.576723, w: -1}
  - {x: 0, y: 0, z: 1, w: -1}
  - {x: 0, y: 0, z: 1, w: -1}
  - {x: -1, y: 0, z: 0, w: -1}
  - {x: -1, y: 0, z: 0, w: -1}
  - {x: -1, y: 0, z: 0, w: -1}
  - {x: 1, y: 0, z: 0, w: -1}
  - {x: 1, y: 0, z: 0, w: -1}
  - {x: 1, y: 0, z: 0, w: -1}
  - {x: -1, y: 0, z: 0, w: -1}
  - {x: -1, y: 0, z: 0, w: -1}
  - {x: -1, y: 0, z: 0, w: -1}
  - {x: 1, y: 0, z: 0, w: -1}
  - {x: 1, y: 0, z: 0, w: -1}
  - {x: 1, y: 0, z: 0, w: -1}
  - {x: -1, y: 0, z: 0, w: -1}
  - {x: -1, y: 0, z: 0, w: -1}
  - {x: -1, y: 0, z: 0, w: -1}
  - {x: 1, y: 0, z: 0, w: -1}
  - {x: 1, y: 0, z: 0, w: -1}
  - {x: 1, y: 0, z: 0, w: -1}
  - {x: -1, y: 0, z: 0, w: -1}
  - {x: -1, y: 0, z: 0, w: -1}
  - {x: -1, y: 0, z: 0, w: -1}
  - {x: 1, y: 0, z: 0, w: -1}
  - {x: 1, y: 0, z: 0, w: -1}
  - {x: 1, y: 0, z: 0, w: -1}
  - {x: -1, y: 0, z: 0, w: -1}
  - {x: -1, y: 0, z: 0, w: -1}
  - {x: -1, y: 0, z: 0, w: -1}
  - {x: 1, y: 0, z: 0, w: -1}
  - {x: 1, y: 0, z: 0, w: -1}
  - {x: 1, y: 0, z: 0, w: -1}
  - {x: -1, y: 0, z: 0, w: -1}
  - {x: -1, y: 0, z: 0, w: -1}
  - {x: -1, y: 0, z: 0, w: -1}
  - {x: 1, y: 0, z: 0, w: -1}
  - {x: 1, y: 0, z: 0, w: -1}
  - {x: 1, y: 0, z: 0, w: -1}
  m_Colors: []
  m_UnwrapParameters:
    m_HardAngle: 88
    m_PackMargin: 20
    m_AngleError: 8
    m_AreaError: 15
  m_PreserveMeshAssetOnDestroy: 0
  assetGuid: 
  m_Mesh: {fileID: 0}
  m_VersionIndex: 1443
  m_IsSelectable: 1
  m_SelectedFaces: 
  m_SelectedEdges: []
  m_SelectedVertices: 
--- !u!114 &5771137645599479137
MonoBehaviour:
  m_ObjectHideFlags: 0
  m_CorrespondingSourceObject: {fileID: 0}
  m_PrefabInstance: {fileID: 0}
  m_PrefabAsset: {fileID: 0}
  m_GameObject: {fileID: 735144568433366347}
  m_Enabled: 1
  m_EditorHideFlags: 0
  m_Script: {fileID: 11500000, guid: 1ca002da428252441b92f28d83c8a65f, type: 3}
  m_Name: 
  m_EditorClassIdentifier: 
  m_Shape:
    rid: 8617562445951270916
  m_Size: {x: 0.8121841, y: 0.2210964, z: 1.3198354}
  m_Rotation: {x: 0, y: 0, z: 0, w: 1}
  m_PivotLocation: 1
  m_PivotPosition: {x: 0, y: 0, z: 0}
  m_UnmodifiedMeshVersion: 1443
  m_ShapeBox:
    m_Center: {x: 0.40609202, y: 0.1105482, z: 0.65991783}
    m_Extent: {x: 0.40609205, y: 0.1105482, z: 0.6599177}
  references:
    version: 2
    RefIds:
    - rid: 8617562445951270916
      type: {class: Cylinder, ns: UnityEngine.ProBuilder.Shapes, asm: Unity.ProBuilder}
      data:
        m_AxisDivisions: 6
        m_HeightCuts: 0
        m_Smooth: 1
--- !u!23 &9143465979711327424
MeshRenderer:
  m_ObjectHideFlags: 0
  m_CorrespondingSourceObject: {fileID: 0}
  m_PrefabInstance: {fileID: 0}
  m_PrefabAsset: {fileID: 0}
  m_GameObject: {fileID: 735144568433366347}
  m_Enabled: 1
  m_CastShadows: 1
  m_ReceiveShadows: 1
  m_DynamicOccludee: 1
  m_StaticShadowCaster: 0
  m_MotionVectors: 1
  m_LightProbeUsage: 1
  m_ReflectionProbeUsage: 1
  m_RayTracingMode: 2
  m_RayTraceProcedural: 0
  m_RenderingLayerMask: 1
  m_RendererPriority: 0
  m_Materials:
  - {fileID: 2100000, guid: abbecda82a6b5744abb6cf03309be7c9, type: 2}
  m_StaticBatchInfo:
    firstSubMesh: 0
    subMeshCount: 0
  m_StaticBatchRoot: {fileID: 0}
  m_ProbeAnchor: {fileID: 0}
  m_LightProbeVolumeOverride: {fileID: 0}
  m_ScaleInLightmap: 1
  m_ReceiveGI: 1
  m_PreserveUVs: 0
  m_IgnoreNormalsForChartDetection: 0
  m_ImportantGI: 0
  m_StitchLightmapSeams: 1
  m_SelectedEditorRenderState: 2
  m_MinimumChartSize: 4
  m_AutoUVMaxDistance: 0.5
  m_AutoUVMaxAngle: 89
  m_LightmapParameters: {fileID: 0}
  m_SortingLayerID: 0
  m_SortingLayer: 0
  m_SortingOrder: 0
  m_AdditionalVertexStreams: {fileID: 0}
--- !u!33 &2447241431708036127
MeshFilter:
  m_ObjectHideFlags: 0
  m_CorrespondingSourceObject: {fileID: 0}
  m_PrefabInstance: {fileID: 0}
  m_PrefabAsset: {fileID: 0}
  m_GameObject: {fileID: 735144568433366347}
  m_Mesh: {fileID: 0}
--- !u!64 &7406033407470821937
MeshCollider:
  m_ObjectHideFlags: 0
  m_CorrespondingSourceObject: {fileID: 0}
  m_PrefabInstance: {fileID: 0}
  m_PrefabAsset: {fileID: 0}
  m_GameObject: {fileID: 735144568433366347}
  m_Material: {fileID: 0}
  m_IsTrigger: 0
  m_Enabled: 1
  serializedVersion: 4
  m_Convex: 0
  m_CookingOptions: 30
  m_Mesh: {fileID: 0}
--- !u!1 &4455441302045362291
GameObject:
  m_ObjectHideFlags: 0
  m_CorrespondingSourceObject: {fileID: 0}
  m_PrefabInstance: {fileID: 0}
  m_PrefabAsset: {fileID: 0}
  serializedVersion: 6
  m_Component:
  - component: {fileID: 4915891448684338022}
  - component: {fileID: 4267637811378975230}
  - component: {fileID: 249881596916061214}
  - component: {fileID: 8851264350434609058}
  - component: {fileID: 7061237264813261796}
  - component: {fileID: 1296742743300290541}
  m_Layer: 0
  m_Name: Platform
  m_TagString: Untagged
  m_Icon: {fileID: 0}
  m_NavMeshLayer: 0
  m_StaticEditorFlags: 0
  m_IsActive: 1
--- !u!4 &4915891448684338022
Transform:
  m_ObjectHideFlags: 0
  m_CorrespondingSourceObject: {fileID: 0}
  m_PrefabInstance: {fileID: 0}
  m_PrefabAsset: {fileID: 0}
  m_GameObject: {fileID: 4455441302045362291}
  m_LocalRotation: {x: -0, y: 0.7071068, z: -0, w: 0.7071068}
  m_LocalPosition: {x: 0.10854, y: 0.083000004, z: -0.11439991}
  m_LocalScale: {x: 1.8432473, y: 0.39481488, z: 1.0761212}
  m_ConstrainProportionsScale: 0
  m_Children: []
  m_Father: {fileID: 2658120014173527814}
  m_RootOrder: 1
  m_LocalEulerAnglesHint: {x: 0, y: 90, z: 0}
--- !u!114 &4267637811378975230
MonoBehaviour:
  m_ObjectHideFlags: 0
  m_CorrespondingSourceObject: {fileID: 0}
  m_PrefabInstance: {fileID: 0}
  m_PrefabAsset: {fileID: 0}
  m_GameObject: {fileID: 4455441302045362291}
  m_Enabled: 1
  m_EditorHideFlags: 0
  m_Script: {fileID: 11500000, guid: 8233d90336aea43098adf6dbabd606a2, type: 3}
  m_Name: 
  m_EditorClassIdentifier: 
  m_MeshFormatVersion: 2
  m_Faces:
  - m_Indexes: 000000000100000002000000010000000300000002000000
    m_SmoothingGroup: 1
    m_Uv:
      m_UseWorldSpace: 0
      m_FlipU: 0
      m_FlipV: 0
      m_SwapUV: 0
      m_Fill: 1
      m_Scale: {x: 1, y: 1}
      m_Offset: {x: 0, y: 0}
      m_Rotation: 0
      m_Anchor: 9
    m_Material: {fileID: 0}
    m_SubmeshIndex: 0
    m_ManualUV: 0
    elementGroup: -1
    m_TextureGroup: -1
  - m_Indexes: 040000000500000006000000050000000700000006000000
    m_SmoothingGroup: 1
    m_Uv:
      m_UseWorldSpace: 0
      m_FlipU: 0
      m_FlipV: 0
      m_SwapUV: 0
      m_Fill: 1
      m_Scale: {x: 1, y: 1}
      m_Offset: {x: 0, y: 0}
      m_Rotation: 0
      m_Anchor: 9
    m_Material: {fileID: 0}
    m_SubmeshIndex: 0
    m_ManualUV: 0
    elementGroup: -1
    m_TextureGroup: -1
  - m_Indexes: 08000000090000000a000000090000000b0000000a000000
    m_SmoothingGroup: 1
    m_Uv:
      m_UseWorldSpace: 0
      m_FlipU: 0
      m_FlipV: 0
      m_SwapUV: 0
      m_Fill: 1
      m_Scale: {x: 1, y: 1}
      m_Offset: {x: 0, y: 0}
      m_Rotation: 0
      m_Anchor: 9
    m_Material: {fileID: 0}
    m_SubmeshIndex: 0
    m_ManualUV: 0
    elementGroup: -1
    m_TextureGroup: -1
  - m_Indexes: 0c0000000d0000000e0000000d0000000f0000000e000000
    m_SmoothingGroup: 1
    m_Uv:
      m_UseWorldSpace: 0
      m_FlipU: 0
      m_FlipV: 0
      m_SwapUV: 0
      m_Fill: 1
      m_Scale: {x: 1, y: 1}
      m_Offset: {x: 0, y: 0}
      m_Rotation: 0
      m_Anchor: 9
    m_Material: {fileID: 0}
    m_SubmeshIndex: 0
    m_ManualUV: 0
    elementGroup: -1
    m_TextureGroup: -1
  - m_Indexes: 100000001100000012000000110000001300000012000000
    m_SmoothingGroup: 1
    m_Uv:
      m_UseWorldSpace: 0
      m_FlipU: 0
      m_FlipV: 0
      m_SwapUV: 0
      m_Fill: 1
      m_Scale: {x: 1, y: 1}
      m_Offset: {x: 0, y: 0}
      m_Rotation: 0
      m_Anchor: 9
    m_Material: {fileID: 0}
    m_SubmeshIndex: 0
    m_ManualUV: 0
    elementGroup: -1
    m_TextureGroup: -1
  - m_Indexes: 140000001500000016000000150000001700000016000000
    m_SmoothingGroup: 1
    m_Uv:
      m_UseWorldSpace: 0
      m_FlipU: 0
      m_FlipV: 0
      m_SwapUV: 0
      m_Fill: 1
      m_Scale: {x: 1, y: 1}
      m_Offset: {x: 0, y: 0}
      m_Rotation: 0
      m_Anchor: 9
    m_Material: {fileID: 0}
    m_SubmeshIndex: 0
    m_ManualUV: 0
    elementGroup: -1
    m_TextureGroup: -1
  - m_Indexes: 1a0000001900000018000000
    m_SmoothingGroup: 0
    m_Uv:
      m_UseWorldSpace: 0
      m_FlipU: 0
      m_FlipV: 0
      m_SwapUV: 0
      m_Fill: 1
      m_Scale: {x: 1, y: 1}
      m_Offset: {x: 0, y: 0}
      m_Rotation: 0
      m_Anchor: 9
    m_Material: {fileID: 2100000, guid: 31321ba15b8f8eb4c954353edc038b1d, type: 2}
    m_SubmeshIndex: 0
    m_ManualUV: 0
    elementGroup: 0
    m_TextureGroup: -1
  - m_Indexes: 200000001f0000001e000000
    m_SmoothingGroup: 0
    m_Uv:
      m_UseWorldSpace: 0
      m_FlipU: 0
      m_FlipV: 0
      m_SwapUV: 0
      m_Fill: 1
      m_Scale: {x: 1, y: 1}
      m_Offset: {x: 0, y: 0}
      m_Rotation: 0
      m_Anchor: 9
    m_Material: {fileID: 2100000, guid: 31321ba15b8f8eb4c954353edc038b1d, type: 2}
    m_SubmeshIndex: 0
    m_ManualUV: 0
    elementGroup: 0
    m_TextureGroup: -1
  - m_Indexes: 260000002500000024000000
    m_SmoothingGroup: 0
    m_Uv:
      m_UseWorldSpace: 0
      m_FlipU: 0
      m_FlipV: 0
      m_SwapUV: 0
      m_Fill: 1
      m_Scale: {x: 1, y: 1}
      m_Offset: {x: 0, y: 0}
      m_Rotation: 0
      m_Anchor: 9
    m_Material: {fileID: 2100000, guid: 31321ba15b8f8eb4c954353edc038b1d, type: 2}
    m_SubmeshIndex: 0
    m_ManualUV: 0
    elementGroup: 0
    m_TextureGroup: -1
  - m_Indexes: 2c0000002b0000002a000000
    m_SmoothingGroup: 0
    m_Uv:
      m_UseWorldSpace: 0
      m_FlipU: 0
      m_FlipV: 0
      m_SwapUV: 0
      m_Fill: 1
      m_Scale: {x: 1, y: 1}
      m_Offset: {x: 0, y: 0}
      m_Rotation: 0
      m_Anchor: 9
    m_Material: {fileID: 2100000, guid: 31321ba15b8f8eb4c954353edc038b1d, type: 2}
    m_SubmeshIndex: 0
    m_ManualUV: 0
    elementGroup: 0
    m_TextureGroup: -1
  - m_Indexes: 320000003100000030000000
    m_SmoothingGroup: 0
    m_Uv:
      m_UseWorldSpace: 0
      m_FlipU: 0
      m_FlipV: 0
      m_SwapUV: 0
      m_Fill: 1
      m_Scale: {x: 1, y: 1}
      m_Offset: {x: 0, y: 0}
      m_Rotation: 0
      m_Anchor: 9
    m_Material: {fileID: 2100000, guid: 31321ba15b8f8eb4c954353edc038b1d, type: 2}
    m_SubmeshIndex: 0
    m_ManualUV: 0
    elementGroup: 0
    m_TextureGroup: -1
  - m_Indexes: 380000003700000036000000
    m_SmoothingGroup: 0
    m_Uv:
      m_UseWorldSpace: 0
      m_FlipU: 0
      m_FlipV: 0
      m_SwapUV: 0
      m_Fill: 1
      m_Scale: {x: 1, y: 1}
      m_Offset: {x: 0, y: 0}
      m_Rotation: 0
      m_Anchor: 9
    m_Material: {fileID: 2100000, guid: 31321ba15b8f8eb4c954353edc038b1d, type: 2}
    m_SubmeshIndex: 0
    m_ManualUV: 0
    elementGroup: 0
    m_TextureGroup: -1
  - m_Indexes: 1b0000001c0000001d000000
    m_SmoothingGroup: 0
    m_Uv:
      m_UseWorldSpace: 0
      m_FlipU: 0
      m_FlipV: 0
      m_SwapUV: 0
      m_Fill: 1
      m_Scale: {x: 1, y: 1}
      m_Offset: {x: 0, y: 0}
      m_Rotation: 0
      m_Anchor: 9
    m_Material: {fileID: 2100000, guid: 31321ba15b8f8eb4c954353edc038b1d, type: 2}
    m_SubmeshIndex: 0
    m_ManualUV: 0
    elementGroup: 0
    m_TextureGroup: -1
  - m_Indexes: 210000002200000023000000
    m_SmoothingGroup: 0
    m_Uv:
      m_UseWorldSpace: 0
      m_FlipU: 0
      m_FlipV: 0
      m_SwapUV: 0
      m_Fill: 1
      m_Scale: {x: 1, y: 1}
      m_Offset: {x: 0, y: 0}
      m_Rotation: 0
      m_Anchor: 9
    m_Material: {fileID: 2100000, guid: 31321ba15b8f8eb4c954353edc038b1d, type: 2}
    m_SubmeshIndex: 0
    m_ManualUV: 0
    elementGroup: 0
    m_TextureGroup: -1
  - m_Indexes: 270000002800000029000000
    m_SmoothingGroup: 0
    m_Uv:
      m_UseWorldSpace: 0
      m_FlipU: 0
      m_FlipV: 0
      m_SwapUV: 0
      m_Fill: 1
      m_Scale: {x: 1, y: 1}
      m_Offset: {x: 0, y: 0}
      m_Rotation: 0
      m_Anchor: 9
    m_Material: {fileID: 2100000, guid: 31321ba15b8f8eb4c954353edc038b1d, type: 2}
    m_SubmeshIndex: 0
    m_ManualUV: 0
    elementGroup: 0
    m_TextureGroup: -1
  - m_Indexes: 2d0000002e0000002f000000
    m_SmoothingGroup: 0
    m_Uv:
      m_UseWorldSpace: 0
      m_FlipU: 0
      m_FlipV: 0
      m_SwapUV: 0
      m_Fill: 1
      m_Scale: {x: 1, y: 1}
      m_Offset: {x: 0, y: 0}
      m_Rotation: 0
      m_Anchor: 9
    m_Material: {fileID: 2100000, guid: 31321ba15b8f8eb4c954353edc038b1d, type: 2}
    m_SubmeshIndex: 0
    m_ManualUV: 0
    elementGroup: 0
    m_TextureGroup: -1
  - m_Indexes: 330000003400000035000000
    m_SmoothingGroup: 0
    m_Uv:
      m_UseWorldSpace: 0
      m_FlipU: 0
      m_FlipV: 0
      m_SwapUV: 0
      m_Fill: 1
      m_Scale: {x: 1, y: 1}
      m_Offset: {x: 0, y: 0}
      m_Rotation: 0
      m_Anchor: 9
    m_Material: {fileID: 2100000, guid: 31321ba15b8f8eb4c954353edc038b1d, type: 2}
    m_SubmeshIndex: 0
    m_ManualUV: 0
    elementGroup: 0
    m_TextureGroup: -1
  - m_Indexes: 390000003a0000003b000000
    m_SmoothingGroup: 0
    m_Uv:
      m_UseWorldSpace: 0
      m_FlipU: 0
      m_FlipV: 0
      m_SwapUV: 0
      m_Fill: 1
      m_Scale: {x: 1, y: 1}
      m_Offset: {x: 0, y: 0}
      m_Rotation: 0
      m_Anchor: 9
    m_Material: {fileID: 2100000, guid: 31321ba15b8f8eb4c954353edc038b1d, type: 2}
    m_SubmeshIndex: 0
    m_ManualUV: 0
    elementGroup: 0
    m_TextureGroup: -1
  m_SharedVertices:
  - m_Vertices: 00000000160000001800000038000000
  - m_Vertices: 01000000170000001b0000003b000000
  - m_Vertices: 02000000040000001a0000001e000000
  - m_Vertices: 03000000050000001d00000021000000
  - m_Vertices: 06000000080000002000000024000000
  - m_Vertices: 07000000090000002300000027000000
  - m_Vertices: 0a0000000c000000260000002a000000
  - m_Vertices: 0b0000000d000000290000002d000000
  - m_Vertices: 0e000000100000002c00000030000000
  - m_Vertices: 0f000000110000002f00000033000000
  - m_Vertices: 12000000140000003200000036000000
  - m_Vertices: 13000000150000003500000039000000
  - m_Vertices: 190000001f000000250000002b0000003100000037000000
  - m_Vertices: 1c00000022000000280000002e000000340000003a000000
  m_SharedTextures: []
  m_Positions:
  - {x: 0.8121841, y: 0, z: 0.65991783}
  - {x: 0.8121841, y: 0.2210964, z: 0.65991783}
  - {x: 0.609138, y: 0, z: 1.2314234}
  - {x: 0.609138, y: 0.2210964, z: 1.2314234}
  - {x: 0.609138, y: 0, z: 1.2314234}
  - {x: 0.609138, y: 0.2210964, z: 1.2314234}
  - {x: 0.20304596, y: 0, z: 1.2314234}
  - {x: 0.20304596, y: 0.2210964, z: 1.2314234}
  - {x: 0.20304596, y: 0, z: 1.2314234}
  - {x: 0.20304596, y: 0.2210964, z: 1.2314234}
  - {x: -0.000000029802322, y: 0, z: 0.6599178}
  - {x: -0.000000029802322, y: 0.2210964, z: 0.6599178}
  - {x: -0.000000029802322, y: 0, z: 0.6599178}
  - {x: -0.000000029802322, y: 0.2210964, z: 0.6599178}
  - {x: 0.20304602, y: 0, z: 0.088412285}
  - {x: 0.20304602, y: 0.2210964, z: 0.088412285}
  - {x: 0.20304602, y: 0, z: 0.088412285}
  - {x: 0.20304602, y: 0.2210964, z: 0.088412285}
  - {x: 0.609138, y: 0, z: 0.088412285}
  - {x: 0.609138, y: 0.2210964, z: 0.088412285}
  - {x: 0.609138, y: 0, z: 0.088412285}
  - {x: 0.609138, y: 0.2210964, z: 0.088412285}
  - {x: 0.8121841, y: 0, z: 0.65991783}
  - {x: 0.8121841, y: 0.2210964, z: 0.65991783}
  - {x: 0.8121841, y: 0, z: 0.65991783}
  - {x: 0.40609202, y: 0, z: 0.65991783}
  - {x: 0.609138, y: 0, z: 1.2314234}
  - {x: 0.8121841, y: 0.2210964, z: 0.65991783}
  - {x: 0.40609202, y: 0.2210964, z: 0.65991783}
  - {x: 0.609138, y: 0.2210964, z: 1.2314234}
  - {x: 0.609138, y: 0, z: 1.2314234}
  - {x: 0.40609202, y: 0, z: 0.65991783}
  - {x: 0.20304596, y: 0, z: 1.2314234}
  - {x: 0.609138, y: 0.2210964, z: 1.2314234}
  - {x: 0.40609202, y: 0.2210964, z: 0.65991783}
  - {x: 0.20304596, y: 0.2210964, z: 1.2314234}
  - {x: 0.20304596, y: 0, z: 1.2314234}
  - {x: 0.40609202, y: 0, z: 0.65991783}
  - {x: -0.000000029802322, y: 0, z: 0.6599178}
  - {x: 0.20304596, y: 0.2210964, z: 1.2314234}
  - {x: 0.40609202, y: 0.2210964, z: 0.65991783}
  - {x: -0.000000029802322, y: 0.2210964, z: 0.6599178}
  - {x: -0.000000029802322, y: 0, z: 0.6599178}
  - {x: 0.40609202, y: 0, z: 0.65991783}
  - {x: 0.20304602, y: 0, z: 0.088412285}
  - {x: -0.000000029802322, y: 0.2210964, z: 0.6599178}
  - {x: 0.40609202, y: 0.2210964, z: 0.65991783}
  - {x: 0.20304602, y: 0.2210964, z: 0.088412285}
  - {x: 0.20304602, y: 0, z: 0.088412285}
  - {x: 0.40609202, y: 0, z: 0.65991783}
  - {x: 0.609138, y: 0, z: 0.088412285}
  - {x: 0.20304602, y: 0.2210964, z: 0.088412285}
  - {x: 0.40609202, y: 0.2210964, z: 0.65991783}
  - {x: 0.609138, y: 0.2210964, z: 0.088412285}
  - {x: 0.609138, y: 0, z: 0.088412285}
  - {x: 0.40609202, y: 0, z: 0.65991783}
  - {x: 0.8121841, y: 0, z: 0.65991783}
  - {x: 0.609138, y: 0.2210964, z: 0.088412285}
  - {x: 0.40609202, y: 0.2210964, z: 0.65991783}
  - {x: 0.8121841, y: 0.2210964, z: 0.65991783}
  m_Textures0:
  - {x: 0.34993362, y: 0}
  - {x: 0.34993362, y: 0.2210964}
  - {x: 0.95643693, y: 0}
  - {x: 0.95643693, y: 0.2210964}
  - {x: -0.609138, y: 0}
  - {x: -0.609138, y: 0.2210964}
  - {x: -0.20304596, y: 0}
  - {x: -0.20304596, y: 0.2210964}
  - {x: -1.2283411, y: 0}
  - {x: -1.2283411, y: 0.2210964}
  - {x: -0.6218378, y: 0}
  - {x: -0.6218378, y: 0.2210964}
  - {x: -0.62183774, y: 0}
  - {x: -0.62183774, y: 0.2210964}
  - {x: -0.015334484, y: 0}
  - {x: -0.015334484, y: 0.2210964}
  - {x: 0.20304602, y: 0}
  - {x: 0.20304602, y: 0.2210964}
  - {x: 0.609138, y: 0}
  - {x: 0.609138, y: 0.2210964}
  - {x: 0.28723863, y: 0}
  - {x: 0.28723863, y: 0.2210964}
  - {x: 0.89374197, y: 0}
  - {x: 0.89374197, y: 0.2210964}
  - {x: -0.8121841, y: 0.65991783}
  - {x: -0.40609202, y: 0.65991783}
  - {x: -0.609138, y: 1.2314234}
  - {x: 0.8121841, y: 0.65991783}
  - {x: 0.40609202, y: 0.65991783}
  - {x: 0.609138, y: 1.2314234}
  - {x: -0.609138, y: 1.2314234}
  - {x: -0.40609202, y: 0.65991783}
  - {x: -0.20304596, y: 1.2314234}
  - {x: 0.609138, y: 1.2314234}
  - {x: 0.40609202, y: 0.65991783}
  - {x: 0.20304596, y: 1.2314234}
  - {x: -0.20304596, y: 1.2314234}
  - {x: -0.40609202, y: 0.65991783}
  - {x: 0.000000029802322, y: 0.6599178}
  - {x: 0.20304596, y: 1.2314234}
  - {x: 0.40609202, y: 0.65991783}
  - {x: -0.000000029802322, y: 0.6599178}
  - {x: 0.000000029802322, y: 0.6599178}
  - {x: -0.40609202, y: 0.65991783}
  - {x: -0.20304602, y: 0.088412285}
  - {x: -0.000000029802322, y: 0.6599178}
  - {x: 0.40609202, y: 0.65991783}
  - {x: 0.20304602, y: 0.088412285}
  - {x: -0.20304602, y: 0.088412285}
  - {x: -0.40609202, y: 0.65991783}
  - {x: -0.609138, y: 0.088412285}
  - {x: 0.20304602, y: 0.088412285}
  - {x: 0.40609202, y: 0.65991783}
  - {x: 0.609138, y: 0.088412285}
  - {x: -0.609138, y: 0.088412285}
  - {x: -0.40609202, y: 0.65991783}
  - {x: -0.8121841, y: 0.65991783}
  - {x: 0.609138, y: 0.088412285}
  - {x: 0.40609202, y: 0.65991783}
  - {x: 0.8121841, y: 0.65991783}
  m_Textures2: []
  m_Textures3: []
  m_Tangents:
  - {x: 0, y: 0, z: 1, w: -1}
  - {x: 0, y: 0, z: 1, w: -1}
  - {x: -0.8169399, y: 0, z: 0.576723, w: -1}
  - {x: -0.8169399, y: 0, z: 0.576723, w: -1}
  - {x: -0.81693983, y: 0, z: 0.57672286, w: -1}
  - {x: -0.81693983, y: 0, z: 0.57672286, w: -1}
  - {x: -0.8169398, y: 0, z: -0.57672304, w: -1}
  - {x: -0.8169398, y: 0, z: -0.57672304, w: -1}
  - {x: -0.8169398, y: 0, z: -0.5767229, w: -1}
  - {x: -0.8169398, y: 0, z: -0.5767229, w: -1}
  - {x: 0.00000006325471, y: 0, z: -1, w: -1}
  - {x: 0.00000006325471, y: 0, z: -1, w: -1}
  - {x: 0.0000000632547, y: 0, z: -1, w: -1}
  - {x: 0.0000000632547, y: 0, z: -1, w: -1}
  - {x: 0.8169398, y: 0, z: -0.576723, w: -1}
  - {x: 0.8169398, y: 0, z: -0.576723, w: -1}
  - {x: 0.81693983, y: 0, z: -0.57672286, w: -1}
  - {x: 0.81693983, y: 0, z: -0.57672286, w: -1}
  - {x: 0.81693983, y: 0, z: 0.57672286, w: -1}
  - {x: 0.81693983, y: 0, z: 0.57672286, w: -1}
  - {x: 0.81693983, y: 0, z: 0.576723, w: -1}
  - {x: 0.81693983, y: 0, z: 0.576723, w: -1}
  - {x: 0, y: 0, z: 1, w: -1}
  - {x: 0, y: 0, z: 1, w: -1}
  - {x: -1, y: 0, z: 0, w: -1}
  - {x: -1, y: 0, z: 0, w: -1}
  - {x: -1, y: 0, z: 0, w: -1}
  - {x: 1, y: 0, z: 0, w: -1}
  - {x: 1, y: 0, z: 0, w: -1}
  - {x: 1, y: 0, z: 0, w: -1}
  - {x: -1, y: 0, z: 0, w: -1}
  - {x: -1, y: 0, z: 0, w: -1}
  - {x: -1, y: 0, z: 0, w: -1}
  - {x: 1, y: 0, z: 0, w: -1}
  - {x: 1, y: 0, z: 0, w: -1}
  - {x: 1, y: 0, z: 0, w: -1}
  - {x: -1, y: 0, z: 0, w: -1}
  - {x: -1, y: 0, z: 0, w: -1}
  - {x: -1, y: 0, z: 0, w: -1}
  - {x: 1, y: 0, z: 0, w: -1}
  - {x: 1, y: 0, z: 0, w: -1}
  - {x: 1, y: 0, z: 0, w: -1}
  - {x: -1, y: 0, z: 0, w: -1}
  - {x: -1, y: 0, z: 0, w: -1}
  - {x: -1, y: 0, z: 0, w: -1}
  - {x: 1, y: 0, z: 0, w: -1}
  - {x: 1, y: 0, z: 0, w: -1}
  - {x: 1, y: 0, z: 0, w: -1}
  - {x: -1, y: 0, z: 0, w: -1}
  - {x: -1, y: 0, z: 0, w: -1}
  - {x: -1, y: 0, z: 0, w: -1}
  - {x: 1, y: 0, z: 0, w: -1}
  - {x: 1, y: 0, z: 0, w: -1}
  - {x: 1, y: 0, z: 0, w: -1}
  - {x: -1, y: 0, z: 0, w: -1}
  - {x: -1, y: 0, z: 0, w: -1}
  - {x: -1, y: 0, z: 0, w: -1}
  - {x: 1, y: 0, z: 0, w: -1}
  - {x: 1, y: 0, z: 0, w: -1}
  - {x: 1, y: 0, z: 0, w: -1}
  m_Colors: []
  m_UnwrapParameters:
    m_HardAngle: 88
    m_PackMargin: 20
    m_AngleError: 8
    m_AreaError: 15
  m_PreserveMeshAssetOnDestroy: 0
  assetGuid: 
  m_Mesh: {fileID: 0}
  m_VersionIndex: 1446
  m_IsSelectable: 1
  m_SelectedFaces: 
  m_SelectedEdges: []
  m_SelectedVertices: 
--- !u!114 &249881596916061214
MonoBehaviour:
  m_ObjectHideFlags: 0
  m_CorrespondingSourceObject: {fileID: 0}
  m_PrefabInstance: {fileID: 0}
  m_PrefabAsset: {fileID: 0}
  m_GameObject: {fileID: 4455441302045362291}
  m_Enabled: 1
  m_EditorHideFlags: 0
  m_Script: {fileID: 11500000, guid: 1ca002da428252441b92f28d83c8a65f, type: 3}
  m_Name: 
  m_EditorClassIdentifier: 
  m_Shape:
    rid: 8617562445951270916
  m_Size: {x: 0.8121841, y: 0.2210964, z: 1.3198354}
  m_Rotation: {x: 0, y: 0, z: 0, w: 1}
  m_PivotLocation: 1
  m_PivotPosition: {x: 0, y: 0, z: 0}
  m_UnmodifiedMeshVersion: 1443
  m_ShapeBox:
    m_Center: {x: 0.40609202, y: 0.1105482, z: 0.65991783}
    m_Extent: {x: 0.40609205, y: 0.1105482, z: 0.6599177}
  references:
    version: 2
    RefIds:
    - rid: 8617562445951270916
      type: {class: Cylinder, ns: UnityEngine.ProBuilder.Shapes, asm: Unity.ProBuilder}
      data:
        m_AxisDivisions: 6
        m_HeightCuts: 0
        m_Smooth: 1
--- !u!23 &8851264350434609058
MeshRenderer:
  m_ObjectHideFlags: 0
  m_CorrespondingSourceObject: {fileID: 0}
  m_PrefabInstance: {fileID: 0}
  m_PrefabAsset: {fileID: 0}
  m_GameObject: {fileID: 4455441302045362291}
  m_Enabled: 1
  m_CastShadows: 1
  m_ReceiveShadows: 1
  m_DynamicOccludee: 1
  m_StaticShadowCaster: 0
  m_MotionVectors: 1
  m_LightProbeUsage: 1
  m_ReflectionProbeUsage: 1
  m_RayTracingMode: 2
  m_RayTraceProcedural: 0
  m_RenderingLayerMask: 1
  m_RendererPriority: 0
  m_Materials:
  - {fileID: 2100000, guid: 829bd942041e53440aeb86bb9b017440, type: 2}
  m_StaticBatchInfo:
    firstSubMesh: 0
    subMeshCount: 0
  m_StaticBatchRoot: {fileID: 0}
  m_ProbeAnchor: {fileID: 0}
  m_LightProbeVolumeOverride: {fileID: 0}
  m_ScaleInLightmap: 1
  m_ReceiveGI: 1
  m_PreserveUVs: 0
  m_IgnoreNormalsForChartDetection: 0
  m_ImportantGI: 0
  m_StitchLightmapSeams: 1
  m_SelectedEditorRenderState: 2
  m_MinimumChartSize: 4
  m_AutoUVMaxDistance: 0.5
  m_AutoUVMaxAngle: 89
  m_LightmapParameters: {fileID: 0}
  m_SortingLayerID: 0
  m_SortingLayer: 0
  m_SortingOrder: 0
  m_AdditionalVertexStreams: {fileID: 0}
--- !u!33 &7061237264813261796
MeshFilter:
  m_ObjectHideFlags: 0
  m_CorrespondingSourceObject: {fileID: 0}
  m_PrefabInstance: {fileID: 0}
  m_PrefabAsset: {fileID: 0}
  m_GameObject: {fileID: 4455441302045362291}
  m_Mesh: {fileID: 0}
--- !u!64 &1296742743300290541
MeshCollider:
  m_ObjectHideFlags: 0
  m_CorrespondingSourceObject: {fileID: 0}
  m_PrefabInstance: {fileID: 0}
  m_PrefabAsset: {fileID: 0}
  m_GameObject: {fileID: 4455441302045362291}
  m_Material: {fileID: 0}
  m_IsTrigger: 0
  m_Enabled: 1
  serializedVersion: 4
  m_Convex: 0
  m_CookingOptions: 30
  m_Mesh: {fileID: 0}
--- !u!1 &4922489014979089598
GameObject:
  m_ObjectHideFlags: 0
  m_CorrespondingSourceObject: {fileID: 0}
  m_PrefabInstance: {fileID: 0}
  m_PrefabAsset: {fileID: 0}
  serializedVersion: 6
  m_Component:
  - component: {fileID: 2658120014173527814}
  m_Layer: 0
  m_Name: Character Platform
  m_TagString: Untagged
  m_Icon: {fileID: 0}
  m_NavMeshLayer: 0
  m_StaticEditorFlags: 0
  m_IsActive: 1
--- !u!4 &2658120014173527814
Transform:
  m_ObjectHideFlags: 0
  m_CorrespondingSourceObject: {fileID: 0}
  m_PrefabInstance: {fileID: 0}
  m_PrefabAsset: {fileID: 0}
  m_GameObject: {fileID: 4922489014979089598}
  m_LocalRotation: {x: 0, y: 0, z: 0, w: 1}
  m_LocalPosition: {x: -0.588, y: 0.486, z: -3.7952}
  m_LocalScale: {x: 1, y: 1, z: 1}
  m_ConstrainProportionsScale: 0
  m_Children:
  - {fileID: 3786654105301835552}
  - {fileID: 4915891448684338022}
  m_Father: {fileID: 0}
  m_RootOrder: 0
  m_LocalEulerAnglesHint: {x: 0, y: 0, z: 0}
